[Error  - 04:41:59.778] Getting token failed: Error: Unknown or unsupported transport “disabled” for address “disabled:”
[Error  - 04:42:29.783] Getting token failed: Error: Unknown or unsupported transport “disabled” for address “disabled:”
[Error  - 04:42:59.797] Getting token failed: Error: Unknown or unsupported transport “disabled” for address “disabled:”
[Error  - 04:43:29.803] Getting token failed: Error: Unknown or unsupported transport “disabled” for address “disabled:”
[Error  - 04:43:59.809] Getting token failed: Error: Unknown or unsupported transport “disabled” for address “disabled:”
[Error  - 04:44:29.814] Getting token failed: Error: Unknown or unsupported transport “disabled” for address “disabled:”
[Error  - 04:44:59.820] Getting token failed: Error: Unknown or unsupported transport “disabled” for address “disabled:”
[Error  - 04:45:29.828] Getting token failed: Error: Unknown or unsupported transport “disabled” for address “disabled:”
[Error  - 04:45:59.834] Getting token failed: Error: Unknown or unsupported transport “disabled” for address “disabled:”
[Error  - 04:46:29.844] Getting token failed: Error: Unknown or unsupported transport “disabled” for address “disabled:”
[Error  - 04:46:59.851] Getting token failed: Error: Unknown or unsupported transport “disabled” for address “disabled:”
[Error  - 04:47:29.858] Getting token failed: Error: Unknown or unsupported transport “disabled” for address “disabled:”
[Error  - 04:47:59.865] Getting token failed: Error: Unknown or unsupported transport “disabled” for address “disabled:”
[Error  - 04:48:29.871] Getting token failed: Error: Unknown or unsupported transport “disabled” for address “disabled:”
[Error  - 04:48:59.876] Getting token failed: Error: Unknown or unsupported transport “disabled” for address “disabled:”
[Error  - 04:49:29.881] Getting token failed: Error: Unknown or unsupported transport “disabled” for address “disabled:”
[Error  - 04:49:59.887] Getting token failed: Error: Unknown or unsupported transport “disabled” for address “disabled:”
[Error  - 04:50:29.892] Getting token failed: Error: Unknown or unsupported transport “disabled” for address “disabled:”
[Error  - 04:50:59.901] Getting token failed: Error: Unknown or unsupported transport “disabled” for address “disabled:”
[Error  - 04:51:29.909] Getting token failed: Error: Unknown or unsupported transport “disabled” for address “disabled:”
[Error  - 04:51:59.914] Getting token failed: Error: Unknown or unsupported transport “disabled” for address “disabled:”
[Error  - 04:52:29.921] Getting token failed: Error: Unknown or unsupported transport “disabled” for address “disabled:”
[Error  - 04:52:59.926] Getting token failed: Error: Unknown or unsupported transport “disabled” for address “disabled:”
[Error  - 04:53:29.931] Getting token failed: Error: Unknown or unsupported transport “disabled” for address “disabled:”
[Error  - 04:53:59.940] Getting token failed: Error: Unknown or unsupported transport “disabled” for address “disabled:”
[Error  - 04:54:29.946] Getting token failed: Error: Unknown or unsupported transport “disabled” for address “disabled:”
[Error  - 04:54:59.951] Getting token failed: Error: Unknown or unsupported transport “disabled” for address “disabled:”
[Error  - 04:55:29.957] Getting token failed: Error: Unknown or unsupported transport “disabled” for address “disabled:”
[Error  - 04:55:59.962] Getting token failed: Error: Unknown or unsupported transport “disabled” for address “disabled:”
[Error  - 04:56:29.968] Getting token failed: Error: Unknown or unsupported transport “disabled” for address “disabled:”
[Error  - 04:56:59.973] Getting token failed: Error: Unknown or unsupported transport “disabled” for address “disabled:”
[Error  - 04:57:29.979] Getting token failed: Error: Unknown or unsupported transport “disabled” for address “disabled:”
[Error  - 04:57:59.985] Getting token failed: Error: Unknown or unsupported transport “disabled” for address “disabled:”
[Error  - 04:58:29.993] Getting token failed: Error: Unknown or unsupported transport “disabled” for address “disabled:”
[Error  - 04:58:59.997] Getting token failed: Error: Unknown or unsupported transport “disabled” for address “disabled:”
[Error  - 04:59:30.1] Getting token failed: Error: Unknown or unsupported transport “disabled” for address “disabled:”
[Error  - 05:00:00.4] Getting token failed: Error: Unknown or unsupported transport “disabled” for address “disabled:”
[Error  - 05:00:30.11] Getting token failed: Error: Unknown or unsupported transport “disabled” for address “disabled:”
[Error  - 05:01:00.12] Getting token failed: Error: Unknown or unsupported transport “disabled” for address “disabled:”
[Error  - 05:01:30.17] Getting token failed: Error: Unknown or unsupported transport “disabled” for address “disabled:”
[Error  - 05:02:00.24] Getting token failed: Error: Unknown or unsupported transport “disabled” for address “disabled:”
[Error  - 05:02:30.26] Getting token failed: Error: Unknown or unsupported transport “disabled” for address “disabled:”
[Error  - 05:03:00.29] Getting token failed: Error: Unknown or unsupported transport “disabled” for address “disabled:”
[Error  - 05:03:30.32] Getting token failed: Error: Unknown or unsupported transport “disabled” for address “disabled:”
[Error  - 05:04:00.38] Getting token failed: Error: Unknown or unsupported transport “disabled” for address “disabled:”
[Error  - 05:04:30.45] Getting token failed: Error: Unknown or unsupported transport “disabled” for address “disabled:”
[Error  - 05:05:00.48] Getting token failed: Error: Unknown or unsupported transport “disabled” for address “disabled:”
[Error  - 05:05:30.52] Getting token failed: Error: Unknown or unsupported transport “disabled” for address “disabled:”
[Error  - 05:06:00.56] Getting token failed: Error: Unknown or unsupported transport “disabled” for address “disabled:”
[Error  - 05:06:30.58] Getting token failed: Error: Unknown or unsupported transport “disabled” for address “disabled:”
[Error  - 05:07:00.63] Getting token failed: Error: Unknown or unsupported transport “disabled” for address “disabled:”
[Error  - 05:07:30.65] Getting token failed: Error: Unknown or unsupported transport “disabled” for address “disabled:”
[Error  - 05:08:00.83] Getting token failed: Error: Unknown or unsupported transport “disabled” for address “disabled:”
[Error  - 05:08:30.86] Getting token failed: Error: Unknown or unsupported transport “disabled” for address “disabled:”
[Error  - 05:09:00.89] Getting token failed: Error: Unknown or unsupported transport “disabled” for address “disabled:”
[Error  - 05:09:30.91] Getting token failed: Error: Unknown or unsupported transport “disabled” for address “disabled:”
[Error  - 05:10:00.95] Getting token failed: Error: Unknown or unsupported transport “disabled” for address “disabled:”
[Error  - 05:10:30.99] Getting token failed: Error: Unknown or unsupported transport “disabled” for address “disabled:”
[Error  - 05:11:00.105] Getting token failed: Error: Unknown or unsupported transport “disabled” for address “disabled:”
[Error  - 05:11:30.109] Getting token failed: Error: Unknown or unsupported transport “disabled” for address “disabled:”
[Error  - 05:12:00.112] Getting token failed: Error: Unknown or unsupported transport “disabled” for address “disabled:”
[Error  - 05:12:30.115] Getting token failed: Error: Unknown or unsupported transport “disabled” for address “disabled:”
[Error  - 05:13:00.119] Getting token failed: Error: Unknown or unsupported transport “disabled” for address “disabled:”
